{"page":1,"per_page":6,"total":12,"total_pages":2,
  "data":[
    {"id":1,
      "email":"Rey.Skywalker@sw9.sw",
      "first_name":"Rey",
      "last_name":"Skywalker",
      "avatar":"https://vignette.wikia.nocookie.net/fr.starwars/images/b/b5/TROSReyPoster.jpg/revision/latest/scale-to-width-down/125?cb=20191121082420"},
    {"id":2,
      "email":"Kylo.Ren@sw9.sw",
      "first_name":"Kylo",
      "last_name":"Ren",
      "avatar":"https://vignette.wikia.nocookie.net/fr.starwars/images/f/f9/TROSKyloRenyPoster.jpg/revision/latest/scale-to-width-down/125?cb=20191121082418"},
    {"id":3,
      "email":"Poe.Dameron@sw9.sw",
      "first_name":"Poe",
      "last_name":"Dameron",
      "avatar":"https://vignette.wikia.nocookie.net/fr.starwars/images/e/e1/TROSPoeDameronPoster.jpg/revision/latest/scale-to-width-down/125?cb=20191121082419"},
    {"id":4,
      "email":"Lando.Calrissian@sw9.sw",
      "first_name":"Lando",
      "last_name":"Calrissian",
      "avatar":"https://vignette.wikia.nocookie.net/fr.starwars/images/3/3f/TROSLandoCalrissianPoster.jpg/revision/latest/scale-to-width-down/125?cb=20191121082418"},
    {"id":5,
      "email":"Rose.Tico@sw9.sw",
      "first_name":"Rose",
      "last_name":"Tico",
      "avatar":"https://vignette.wikia.nocookie.net/fr.starwars/images/f/f2/TROSRoseTicoPoster.jpg/revision/latest/scale-to-width-down/125?cb=20191121082420"},
    {"id":6,
      "email":"Jannah@sw9.sw",
      "first_name":"Jannah",
      "last_name":"",
      "avatar":"https://vignette.wikia.nocookie.net/fr.starwars/images/c/cb/TROSJannahPoster.jpg/revision/latest/scale-to-width-down/125?cb=20191121082417"}],
    "ad":{"company":"StatusCode Weekly","url":"http://statuscode.org/","text":"A weekly newsletter focusing on software development, infrastructure, the server, performance, and the stack end of things."}}
